6 Juntando dados | Ciência de Dados com R - Introdução
…
Do resultado desse full join, por exemplo, podemos concluir que não tem nenhum Manager no departamento Resarch, da mesma forma, os empregados Bob, Carla e Ferdinand não são managers de departamento nenhum.

6.3 Exercícios

Utilizando as bases de dados do pacote nycflights13, encontre a tabela abaixo que mostra quais aeroportos (origem e destino) tiveram mais voos. Será necessário utilizar o dataframe flights e airports. Dica: primeiro descubra as chaves.

## `summarise()` regrouping output by 'Origem' (override with `.groups` argument)

## # A tibble: 217 x 3
## # Groups:   Origem [3]
##    Origem              Destino                              qtd
##    <chr>               <chr>                              <int>
##  1 John F Kennedy Intl Los Angeles Intl                   11262
##  2 La Guardia          Hartsfield Jackson Atlanta Intl    10263
##  3 La Guardia          Chicago Ohare Intl                  8857
##  4 John F Kennedy Intl San Francisco Intl                  8204
##  5 La Guardia          Charlotte Douglas Intl              6168
##  6 Newark Liberty Intl Chicago Ohare Intl                  6100
##  7 John F Kennedy Intl General Edward Lawrence Logan Intl  5898
##  8 La Guardia          Miami Intl                          5781
##  9 John F Kennedy Intl Orlando Intl                        5464
## 10 Newark Liberty Intl General Edward Lawrence Logan Intl  5327
## # … with 207 more rows
…
