5 Limpando dados | Ciência de Dados com R - Introdução
…
Para transformar a tabela acima do formato wide para o long, usamos a função:

relig_income %>% 
  pivot_longer(
    # o argumento cols controla quais colunas serão (ou não serão) transformadas
    cols = -religion,
    #names_to controla o nome da nova coluna que irá receber os nomes das colunas transpostas
    names_to = "renda",
    # values_to controla o nome da nova coluna que irá recebebr os valores das colunas transpostas 
    values_to = "quantidade")

## # A tibble: 180 x 3
##    religion renda              quantidade
##    <chr>    <chr>                   <dbl>
##  1 Agnostic <$10k                      27
##  2 Agnostic $10-20k                    34
##  3 Agnostic $20-30k                    60
##  4 Agnostic $30-40k                    81
##  5 Agnostic $40-50k                    76
##  6 Agnostic $50-75k                   137
##  7 Agnostic $75-100k                  122
##  8 Agnostic $100-150k                 109
##  9 Agnostic >150k                      84
## 10 Agnostic Don't know/refused         96
## # … with 170 more rows

Referências: Documentação da função pivot_longer()

5.2.2 pivot_wider()

É a operação antagônica do pivot_longer(). Ela espalha os valores de duas colunas em diversos campos para cada registro: os valores de uma coluna viram o nome das novas colunas, e os valores de outra viram valores de cada registro nas novas colunas. O output tem mais colunas e menos linhas.

us_rent_income

## # A tibble: 104 x 5
##    GEOID NAME       variable estimate   moe
##    <chr> <chr>      <chr>       <dbl> <dbl>
##  1 01    Alabama    income      24476   136
##  2 01    Alabama    rent          747     3
##  3 02    Alaska     income      32940   508
##  4 02    Alaska     rent         1200    13
##  5 04    Arizona    income      27517   148
##  6 04    Arizona    rent          972     4
##  7 05    Arkansas   income      23789   165
##  8 05    Arkansas   rent          709     5
##  9 06    California income      29454   109
## 10 06    California rent         1358     3
## # … with 94 more rows

us_rent_income %>% 
  pivot_wider(
    #names_from controla de qual coluna serão criados os nomes das novas colunas
    names_from = variable,
    # values_from controla as colunas cujos valores serão os valores das novas colunas
    values_from = c(estimate, moe)
  )

## # A tibble: 52 x 6
##    GEOID NAME                 estimate_income estimate_rent moe_income moe_rent
##    <chr> <chr>                          <dbl>         <dbl>      <dbl>    <dbl>
##  1 01    Alabama                        24476           747        136        3
##  2 02    Alaska                         32940          1200        508       13
##  3 04    Arizona                        27517           972        148        4
##  4 05    Arkansas                       23789           709        165        5
##  5 06    California                     29454          1358        109        3
##  6 08    Colorado                       32401          1125        109        5
##  7 09    Connecticut                    35326          1123        195        5
##  8 10    Delaware                       31560          1076        247       10
##  9 11    District of Columbia           43198          1424        681       17
## 10 12    Florida                        25952          1077         70        3
## # … with 42 more rows
…
