4 Manipulando os dados | Ciência de Dados com R - Introdução
…
summarise()

Esses são os principais verbetes, mas existem outros disponíveis, como por exemplo slice(), rename() e transmute().
Além de nomes de funções intuitivos, o dplyr também faz uso de um recurso disponível em boa parte dos pacotes do Hadley, o operador %>% (originário do pacote magrittr). Este operador encadeia as chamadas de funções de forma que você não vai precisar ficar chamando uma função dentro da outra ou ficar fazendo atribuições usando diversas linhas para concluir suas manipulações. Aliás, podemos dizer que esse operador %>%, literalmente, cria um fluxo sequencial bastante claro e legível para todas as atividades de manipulação.

Os 6 principais verbetes listados acima possuem funções derivadas com os sufixos _at, _if e _all, que podem ser muito úteis em arquivos com muitas colunas.

4.4.2 Select

O select() é a função mais simples de ser entendida. É usada para selecionar variáveis (colunas, campos, features…) do seu data frame.

df %>% select(urlDocumento, txtDescricao, vlrRestituicao)

## # A tibble: 144,367 × 3
##    urlDocumento                                                                            txtDescricao             vlrRestituicao
##    <chr>                                                                                   <chr>                    <lgl>         
##  1 http://camara.leg.br/cota-parlamentar/nota-fiscal-eletronica?ideDocumentoFiscal=7050172 CONSULTORIAS, PESQUISAS… NA            
##  2 http://camara.leg.br/cota-parlamentar/nota-fiscal-eletronica?ideDocumentoFiscal=7058437 CONSULTORIAS, PESQUISAS… NA            
##  3 http://camara.leg.br/cota-parlamentar/nota-fiscal-eletronica?ideDocumentoFiscal=7078508 CONSULTORIAS, PESQUISAS… NA            
##  4 http://camara.leg.br/cota-parlamentar/nota-fiscal-eletronica?ideDocumentoFiscal=7123566 CONSULTORIAS, PESQUISAS… NA            
##  5 http://camara.leg.br/cota-parlamentar/nota-fiscal-eletronica?ideDocumentoFiscal=7067718 DIVULGAÇÃO DA ATIVIDADE… NA            
##  6 http://camara.leg.br/cota-parlamentar/nota-fiscal-eletronica?ideDocumentoFiscal=7088718 DIVULGAÇÃO DA ATIVIDADE… NA            
##  7 http://camara.leg.br/cota-parlamentar/nota-fiscal-eletronica?ideDocumentoFiscal=7101137 DIVULGAÇÃO DA ATIVIDADE… NA            
##  8 http://camara.leg.br/cota-parlamentar/nota-fiscal-eletronica?ideDocumentoFiscal=7140186 DIVULGAÇÃO DA ATIVIDADE… NA            
##  9 <NA>                                                                                    ASSINATURA DE PUBLICAÇÕ… NA            
## 10 http://camara.leg.br/cota-parlamentar/nota-fiscal-eletronica?ideDocumentoFiscal=7042111 ASSINATURA DE PUBLICAÇÕ… NA            
## # … with 144,357 more rows

Você pode, também, fazer uma “seleção negativa,” ou seja, escolher as colunas que não quer:

df %>% select(-txNomeParlamentar)

## # A tibble: 144,367 × 30
##      cpf ideCadastro nuCarteiraParlamentar nuLegislatura sgUF  sgPartido codLegislatura numSubCota txtDescricao   numEspecificaca…
##    <dbl>       <dbl>                 <dbl>         <dbl> <chr> <chr>              <dbl>      <dbl> <chr>                     <dbl>
##  1    NA          NA                    NA          2019 <NA>  <NA>                  56          4 CONSULTORIAS,…                0
##  2    NA          NA                    NA          2019 <NA>  <NA>                  56          4 CONSULTORIAS,…                0
##  3    NA          NA                    NA          2019 <NA>  <NA>                  56          4 CONSULTORIAS,…                0
##  4    NA          NA                    NA          2019 <NA>  <NA>                  56          4 CONSULTORIAS,…                0
##  5    NA          NA                    NA          2019 <NA>  <NA>                  56          5 DIVULGAÇÃO DA…                0
##  6    NA          NA                    NA          2019 <NA>  <NA>                  56          5 DIVULGAÇÃO DA…                0
##  7    NA          NA                    NA          2019 <NA>  <NA>                  56          5 DIVULGAÇÃO DA…                0
##  8    NA          NA                    NA          2019 <NA>  <NA>                  56          5 DIVULGAÇÃO DA…                0
##  9    NA          NA                    NA          2019 <NA>  <NA>                  56         12 ASSINATURA DE…                0
## 10    NA          NA                    NA          2019 <NA>  <NA>                  56         12 ASSINATURA DE…                0
## # … with 144,357 more rows, and 20 more variables: txtDescricaoEspecificacao <chr>, txtFornecedor <chr>, txtCNPJCPF <chr>,
## #   txtNumero <chr>, indTipoDocumento <dbl>, datEmissao <dttm>, vlrDocumento <chr>, vlrGlosa <chr>, vlrLiquido <chr>,
## #   numMes <dbl>, numAno <dbl>, numParcela <dbl>, txtPassageiro <chr>, txtTrecho <chr>, numLote <dbl>, numRessarcimento <dbl>,
## #   vlrRestituicao <lgl>, nuDeputadoId <dbl>, ideDocumento <dbl>, urlDocumento <chr>

df %>% select(-c(txNomeParlamentar, cpf))

## # A tibble: 144,367 × 29
##    ideCadastro nuCarteiraParlamentar nuLegislatura sgUF  sgPartido codLegislatura numSubCota txtDescricao        numEspecificacao…
##          <dbl>                 <dbl>         <dbl> <chr> <chr>              <dbl>      <dbl> <chr>                           <dbl>
##  1          NA                    NA          2019 <NA>  <NA>                  56          4 CONSULTORIAS, PESQ…                 0
##  2          NA                    NA          2019 <NA>  <NA>                  56          4 CONSULTORIAS, PESQ…                 0
##  3          NA                    NA          2019 <NA>  <NA>                  56          4 CONSULTORIAS, PESQ…                 0
##  4          NA                    NA          2019 <NA>  <NA>                  56          4 CONSULTORIAS, PESQ…                 0
##  5          NA                    NA          2019 <NA>  <NA>                  56          5 DIVULGAÇÃO DA ATIV…                 0
##  6          NA                    NA          2019 <NA>  <NA>                  56          5 DIVULGAÇÃO DA ATIV…                 0
##  7          NA                    NA          2019 <NA>  <NA>                  56          5 DIVULGAÇÃO DA ATIV…                 0
##  8          NA                    NA          2019 <NA>  <NA>                  56          5 DIVULGAÇÃO DA ATIV…                 0
##  9          NA                    NA          2019 <NA>  <NA>                  56         12 ASSINATURA DE PUBL…                 0
## 10          NA                    NA          2019 <NA>  <NA>                  56         12 ASSINATURA DE PUBL…                 0
## # … with 144,357 more rows, and 20 more variables: txtDescricaoEspecificacao <chr>, txtFornecedor <chr>, txtCNPJCPF <chr>,
## #   txtNumero <chr>, indTipoDocumento <dbl>, datEmissao <dttm>, vlrDocumento <chr>, vlrGlosa <chr>, vlrLiquido <chr>,
## #   numMes <dbl>, numAno <dbl>, numParcela <dbl>, txtPassageiro <chr>, txtTrecho <chr>, numLote <dbl>, numRessarcimento <dbl>,
## #   vlrRestituicao <lgl>, nuDeputadoId <dbl>, ideDocumento <dbl>, urlDocumento <chr>

select_at(): Selecionar um conjunto de variáveis, especificadas pelo nome ou pela posição numérica, podendo aplicar uma função ao nome delas:

# manter apenas as colunas que começam com S e transformar o nome para maiusculo
#df %>% select_at(vars(starts_with("vlr")))
# é equivalente a:
df %>% select(starts_with("vlr"))

## # A tibble: 144,367 × 4
##    vlrDocumento vlrGlosa vlrLiquido vlrRestituicao
##    <chr>        <chr>    <chr>      <lgl>         
##  1 1527.28      0        1527.28    NA            
##  2 1527.28      0        1527.28    NA            
##  3 1527.28      0        1527.28    NA            
##  4 1527.28      0        1527.28    NA            
##  5 1527.28      0        1527.28    NA            
##  6 1527.28      0        1527.28    NA            
##  7 1527.28      0        1527.28    NA            
##  8 1527.28      0        1527.28    NA            
##  9 613.61       0        613.61     NA            
## 10 1527.28      0        1527.28    NA            
## # … with 144,357 more rows
…
select_all(): seleciona todas as colunas, opcionalmente aplicando uma função ao nome delas.

df %>% select_all(tolower)

## # A tibble: 144,367 × 31
##    txnomeparlamentar         cpf idecadastro nucarteiraparlamentar nulegislatura sguf  sgpartido codlegislatura numsubcota txtdescricao
##    <chr>                   <dbl>       <dbl>                 <dbl>         <dbl> <chr> <chr>              <dbl>      <dbl> <chr>       
##  1 LIDERANÇA DO DEMOCRATAS    NA          NA                    NA          2019 <NA>  <NA>                  56          4 CONSULTORIA…
##  2 LIDERANÇA DO DEMOCRATAS    NA          NA                    NA          2019 <NA>  <NA>                  56          4 CONSULTORIA…
##  3 LIDERANÇA DO DEMOCRATAS    NA          NA                    NA          2019 <NA>  <NA>                  56          4 CONSULTORIA…
##  4 LIDERANÇA DO DEMOCRATAS    NA          NA                    NA          2019 <NA>  <NA>                  56          4 CONSULTORIA…
##  5 LIDERANÇA DO DEMOCRATAS    NA          NA                    NA          2019 <NA>  <NA>                  56          5 DIVULGAÇÃO …
##  6 LIDERANÇA DO DEMOCRATAS    NA          NA                    NA          2019 <NA>  <NA>                  56          5 DIVULGAÇÃO …
##  7 LIDERANÇA DO DEMOCRATAS    NA          NA                    NA          2019 <NA>  <NA>                  56          5 DIVULGAÇÃO …
##  8 LIDERANÇA DO DEMOCRATAS    NA          NA                    NA          2019 <NA>  <NA>                  56          5 DIVULGAÇÃO …
##  9 LIDERANÇA DO DEMOCRATAS    NA          NA                    NA          2019 <NA>  <NA>                  56         12 ASSINATURA …
## 10 LIDERANÇA DO DEMOCRATAS    NA          NA                    NA          2019 <NA>  <NA>                  56         12 ASSINATURA …
## # … with 144,357 more rows, and 21 more variables: numespecificacaosubcota <dbl>, txtdescricaoespecificacao <chr>,
## #   txtfornecedor <chr>, txtcnpjcpf <chr>, txtnumero <chr>, indtipodocumento <dbl>, datemissao <dttm>, vlrdocumento <chr>,
## #   vlrglosa <chr>, vlrliquido <chr>, nummes <dbl>, numano <dbl>, numparcela <dbl>, txtpassageiro <chr>, txttrecho <chr>,
## #   numlote <dbl>, numressarcimento <dbl>, vlrrestituicao <lgl>, nudeputadoid <dbl>, idedocumento <dbl>, urldocumento <chr>
…
