…
tbl_offers_prov <- left_join(tbl_offers, tbl_providers, by = "provider_id")

# criar dataset das analises
tbl_jw <- tbl_jw %>% 
  left_join(tbl_offers_prov, by = "tconst") %>% 
  left_join(tbl_scoring, by = "tconst") %>% 
  select(-provider_id)

Este é o dataset das nossas análises:

# dataset das analises
tbl_jw

## # A tibble: 41,085 x 8
##    tconst original_title original_releas… tmdb_popularity object_type
##    <chr>  <chr>                     <int>           <dbl> <chr>      
##  1 tt090… Breaking Bad               2008            76.6 show       
##  2 tt090… Breaking Bad               2008            76.6 show       
##  3 tt090… Breaking Bad               2008            76.6 show       
##  4 tt090… Breaking Bad               2008            76.6 show       
##  5 tt011… The Shawshank…             1994            30.0 movie      
##  6 tt011… The Shawshank…             1994            30.0 movie      
##  7 tt011… The Shawshank…             1994            30.0 movie      
##  8 tt011… The Shawshank…             1994            30.0 movie      
##  9 tt011… The Shawshank…             1994            30.0 movie      
## 10 tt011… The Shawshank…             1994            30.0 movie      
## # … with 41,075 more rows, and 3 more variables: provider_name <chr>,
## #   scoring_provider_type <chr>, value <dbl>
…
