Capítulo 2 Regressão | Curso de Séries Temporais - IBPAD
…
# Usando o pacote broom para formatar o output dos modelos de regressao
# concatenando os dois modelos em um dataframe so

# metricas dos regressores
modelo.simples %>% tidy()

## # A tibble: 2 x 5
##   term        estimate std.error statistic  p.value
##   <chr>          <dbl>     <dbl>     <dbl>    <dbl>
## 1 (Intercept)    1215.    161.        7.54 1.43e-13
## 2 temp            162.      7.44     21.8  2.81e-81

modelo.multiplo %>% tidy()

## # A tibble: 28 x 5
##    term            estimate std.error statistic   p.value
##    <chr>              <dbl>     <dbl>     <dbl>     <dbl>
##  1 (Intercept)    -4056781.  117133.    -34.6   3.97e-154
##  2 estacaoVerao        889.     180.      4.95  9.12e-  7
##  3 estacaoOutono       832.     213.      3.90  1.04e-  4
##  4 estacaoInverno     1579.     181.      8.72  1.97e- 17
##  5 year               2018.      58.2    34.7   2.85e-154
##  6 month02             137.     144.      0.952 3.41e-  1
##  7 month03             545.     165.      3.29  1.04e-  3
##  8 month04             456.     248.      1.84  6.57e-  2
##  9 month05             724.     268.      2.70  7.01e-  3
## 10 month06             491.     282.      1.74  8.21e-  2
## # … with 18 more rows
…
